Analysis of pupil size data
…
## Loaded package itsadug 2.4 (see 'help("itsadug")' ).

memory.limit(size = 1800000)

## [1] 1800000

1 Load data

library(readr)
readRDS("FinalPolym001.rds")

## # A tibble: 97,107 x 78
##    Subject  TRIAL_INDEX AVERAGE_PUPIL_SI~ DATA_FILE EYE_TRACKED GROUPING_VARIAB~
##    <fct>          <dbl> <chr>             <chr>     <fct>       <chr>           
##  1 Polym001          10 .                 Polym001~ Right       RECORDING_SESSI~
##  2 Polym001          10 .                 Polym001~ Right       RECORDING_SESSI~
##  3 Polym001          10 .                 Polym001~ Right       RECORDING_SESSI~
##  4 Polym001          10 .                 Polym001~ Right       RECORDING_SESSI~
##  5 Polym001          10 .                 Polym001~ Right       RECORDING_SESSI~
##  6 Polym001          10 .                 Polym001~ Right       RECORDING_SESSI~
##  7 Polym001          10 .                 Polym001~ Right       RECORDING_SESSI~
##  8 Polym001          10 .                 Polym001~ Right       RECORDING_SESSI~
##  9 Polym001          10 .                 Polym001~ Right       RECORDING_SESSI~
## 10 Polym001          10 .                 Polym001~ Right       RECORDING_SESSI~
## # ... with 97,097 more rows, and 72 more variables: LEFT_ACCELERATION_X <dbl>,
## #   LEFT_ACCELERATION_Y <dbl>, LEFT_GAZE_X <dbl>, LEFT_GAZE_Y <dbl>,
## #   LEFT_IN_BLINK <dbl>, LEFT_IN_SACCADE <dbl>, LEFT_PUPIL_SIZE <dbl>,
## #   LEFT_VELOCITY_X <dbl>, LEFT_VELOCITY_Y <dbl>, RIGHT_ACCELERATION_X <dbl>,
## #   RIGHT_ACCELERATION_Y <dbl>, RIGHT_GAZE_X <dbl>, RIGHT_GAZE_Y <dbl>,
## #   RIGHT_INTEREST_AREA_ID <chr>, RIGHT_IN_BLINK <dbl>, RIGHT_IN_SACCADE <dbl>,
## #   RIGHT_PUPIL_SIZE <dbl>, RIGHT_VELOCITY_X <dbl>, RIGHT_VELOCITY_Y <dbl>, ...

readRDS("FinalPolym002.rds")

## # A tibble: 107,230 x 78
##    Subject  TRIAL_INDEX AVERAGE_PUPIL_SI~ DATA_FILE EYE_TRACKED GROUPING_VARIAB~
##    <fct>          <dbl> <chr>             <chr>     <fct>       <chr>           
##  1 Polym002          10 .                 Polym002~ Right       RECORDING_SESSI~
##  2 Polym002          10 .                 Polym002~ Right       RECORDING_SESSI~
##  3 Polym002          10 .                 Polym002~ Right       RECORDING_SESSI~
##  4 Polym002          10 .                 Polym002~ Right       RECORDING_SESSI~
##  5 Polym002          10 .                 Polym002~ Right       RECORDING_SESSI~
##  6 Polym002          10 .                 Polym002~ Right       RECORDING_SESSI~
##  7 Polym002          10 .                 Polym002~ Right       RECORDING_SESSI~
##  8 Polym002          10 .                 Polym002~ Right       RECORDING_SESSI~
##  9 Polym002          10 .                 Polym002~ Right       RECORDING_SESSI~
## 10 Polym002          10 .                 Polym002~ Right       RECORDING_SESSI~
## # ... with 107,220 more rows, and 72 more variables: LEFT_ACCELERATION_X <dbl>,
## #   LEFT_ACCELERATION_Y <dbl>, LEFT_GAZE_X <dbl>, LEFT_GAZE_Y <dbl>,
## #   LEFT_IN_BLINK <dbl>, LEFT_IN_SACCADE <dbl>, LEFT_PUPIL_SIZE <dbl>,
## #   LEFT_VELOCITY_X <dbl>, LEFT_VELOCITY_Y <dbl>, RIGHT_ACCELERATION_X <dbl>,
## #   RIGHT_ACCELERATION_Y <dbl>, RIGHT_GAZE_X <dbl>, RIGHT_GAZE_Y <dbl>,
## #   RIGHT_INTEREST_AREA_ID <chr>, RIGHT_IN_BLINK <dbl>, RIGHT_IN_SACCADE <dbl>,
## #   RIGHT_PUPIL_SIZE <dbl>, RIGHT_VELOCITY_X <dbl>, RIGHT_VELOCITY_Y <dbl>, ...

readRDS("FinalPolym003.rds")

## # A tibble: 105,750 x 78
##    Subject  TRIAL_INDEX AVERAGE_PUPIL_SI~ DATA_FILE EYE_TRACKED GROUPING_VARIAB~
##    <fct>          <dbl> <chr>             <chr>     <fct>       <chr>           
##  1 Polym003         100 .                 Polym003~ Right       RECORDING_SESSI~
##  2 Polym003         100 .                 Polym003~ Right       RECORDING_SESSI~
##  3 Polym003         100 .                 Polym003~ Right       RECORDING_SESSI~
##  4 Polym003         100 .                 Polym003~ Right       RECORDING_SESSI~
##  5 Polym003         100 .                 Polym003~ Right       RECORDING_SESSI~
##  6 Polym003         100 .                 Polym003~ Right       RECORDING_SESSI~
##  7 Polym003         100 .                 Polym003~ Right       RECORDING_SESSI~
##  8 Polym003         100 .                 Polym003~ Right       RECORDING_SESSI~
##  9 Polym003         100 .                 Polym003~ Right       RECORDING_SESSI~
## 10 Polym003         100 .                 Polym003~ Right       RECORDING_SESSI~
## # ... with 105,740 more rows, and 72 more variables: LEFT_ACCELERATION_X <dbl>,
## #   LEFT_ACCELERATION_Y <dbl>, LEFT_GAZE_X <dbl>, LEFT_GAZE_Y <dbl>,
## #   LEFT_IN_BLINK <dbl>, LEFT_IN_SACCADE <dbl>, LEFT_PUPIL_SIZE <dbl>,
## #   LEFT_VELOCITY_X <dbl>, LEFT_VELOCITY_Y <dbl>, RIGHT_ACCELERATION_X <dbl>,
## #   RIGHT_ACCELERATION_Y <dbl>, RIGHT_GAZE_X <dbl>, RIGHT_GAZE_Y <dbl>,
## #   RIGHT_INTEREST_AREA_ID <chr>, RIGHT_IN_BLINK <dbl>, RIGHT_IN_SACCADE <dbl>,
## #   RIGHT_PUPIL_SIZE <dbl>, RIGHT_VELOCITY_X <dbl>, RIGHT_VELOCITY_Y <dbl>, ...

readRDS("FinalPolym004.rds")

## # A tibble: 105,360 x 78
##    Subject  TRIAL_INDEX AVERAGE_PUPIL_SI~ DATA_FILE EYE_TRACKED GROUPING_VARIAB~
##    <fct>          <dbl> <chr>             <chr>     <fct>       <chr>           
##  1 Polym004          10 .                 Polym004~ Right       RECORDING_SESSI~
##  2 Polym004          10 .                 Polym004~ Right       RECORDING_SESSI~
##  3 Polym004          10 .                 Polym004~ Right       RECORDING_SESSI~
##  4 Polym004          10 .                 Polym004~ Right       RECORDING_SESSI~
##  5 Polym004          10 .                 Polym004~ Right       RECORDING_SESSI~
##  6 Polym004          10 .                 Polym004~ Right       RECORDING_SESSI~
##  7 Polym004          10 .                 Polym004~ Right       RECORDING_SESSI~
##  8 Polym004          10 .                 Polym004~ Right       RECORDING_SESSI~
##  9 Polym004          10 .                 Polym004~ Right       RECORDING_SESSI~
## 10 Polym004          10 .                 Polym004~ Right       RECORDING_SESSI~
## # ... with 105,350 more rows, and 72 more variables: LEFT_ACCELERATION_X <dbl>,
## #   LEFT_ACCELERATION_Y <dbl>, LEFT_GAZE_X <dbl>, LEFT_GAZE_Y <dbl>,
## #   LEFT_IN_BLINK <dbl>, LEFT_IN_SACCADE <dbl>, LEFT_PUPIL_SIZE <dbl>,
## #   LEFT_VELOCITY_X <dbl>, LEFT_VELOCITY_Y <dbl>, RIGHT_ACCELERATION_X <dbl>,
## #   RIGHT_ACCELERATION_Y <dbl>, RIGHT_GAZE_X <dbl>, RIGHT_GAZE_Y <dbl>,
## #   RIGHT_INTEREST_AREA_ID <chr>, RIGHT_IN_BLINK <dbl>, RIGHT_IN_SACCADE <dbl>,
## #   RIGHT_PUPIL_SIZE <dbl>, RIGHT_VELOCITY_X <dbl>, RIGHT_VELOCITY_Y <dbl>, ...

readRDS("FinalPolym005.rds")

## # A tibble: 102,737 x 78
##    Subject  TRIAL_INDEX AVERAGE_PUPIL_SI~ DATA_FILE EYE_TRACKED GROUPING_VARIAB~
##    <fct>          <dbl> <chr>             <chr>     <fct>       <chr>           
##  1 Polym005          10 .                 Polym005~ Right       RECORDING_SESSI~
##  2 Polym005          10 .                 Polym005~ Right       RECORDING_SESSI~
##  3 Polym005          10 .                 Polym005~ Right       RECORDING_SESSI~
##  4 Polym005          10 .                 Polym005~ Right       RECORDING_SESSI~
##  5 Polym005          10 .                 Polym005~ Right       RECORDING_SESSI~
##  6 Polym005          10 .                 Polym005~ Right       RECORDING_SESSI~
##  7 Polym005          10 .                 Polym005~ Right       RECORDING_SESSI~
##  8 Polym005          10 .                 Polym005~ Right       RECORDING_SESSI~
##  9 Polym005          10 .                 Polym005~ Right       RECORDING_SESSI~
## 10 Polym005          10 .                 Polym005~ Right       RECORDING_SESSI~
## # ... with 102,727 more rows, and 72 more variables: LEFT_ACCELERATION_X <dbl>,
## #   LEFT_ACCELERATION_Y <dbl>, LEFT_GAZE_X <dbl>, LEFT_GAZE_Y <dbl>,
## #   LEFT_IN_BLINK <dbl>, LEFT_IN_SACCADE <dbl>, LEFT_PUPIL_SIZE <dbl>,
## #   LEFT_VELOCITY_X <dbl>, LEFT_VELOCITY_Y <dbl>, RIGHT_ACCELERATION_X <dbl>,
## #   RIGHT_ACCELERATION_Y <dbl>, RIGHT_GAZE_X <dbl>, RIGHT_GAZE_Y <dbl>,
## #   RIGHT_INTEREST_AREA_ID <chr>, RIGHT_IN_BLINK <dbl>, RIGHT_IN_SACCADE <dbl>,
## #   RIGHT_PUPIL_SIZE <dbl>, RIGHT_VELOCITY_X <dbl>, RIGHT_VELOCITY_Y <dbl>, ...

readRDS("FinalPolym006.rds")

## # A tibble: 103,353 x 78
##    Subject  TRIAL_INDEX AVERAGE_PUPIL_SI~ DATA_FILE EYE_TRACKED GROUPING_VARIAB~
##    <fct>          <dbl> <chr>             <chr>     <fct>       <chr>           
##  1 Polym006          10 .                 Polym006~ Right       RECORDING_SESSI~
##  2 Polym006          10 .                 Polym006~ Right       RECORDING_SESSI~
##  3 Polym006          10 .                 Polym006~ Right       RECORDING_SESSI~
##  4 Polym006          10 .                 Polym006~ Right       RECORDING_SESSI~
##  5 Polym006          10 .                 Polym006~ Right       RECORDING_SESSI~
##  6 Polym006          10 .                 Polym006~ Right       RECORDING_SESSI~
##  7 Polym006          10 .                 Polym006~ Right       RECORDING_SESSI~
##  8 Polym006          10 .                 Polym006~ Right       RECORDING_SESSI~
##  9 Polym006          10 .                 Polym006~ Right       RECORDING_SESSI~
## 10 Polym006          10 .                 Polym006~ Right       RECORDING_SESSI~
## # ... with 103,343 more rows, and 72 more variables: LEFT_ACCELERATION_X <dbl>,
## #   LEFT_ACCELERATION_Y <dbl>, LEFT_GAZE_X <dbl>, LEFT_GAZE_Y <dbl>,
## #   LEFT_IN_BLINK <dbl>, LEFT_IN_SACCADE <dbl>, LEFT_PUPIL_SIZE <dbl>,
## #   LEFT_VELOCITY_X <dbl>, LEFT_VELOCITY_Y <dbl>, RIGHT_ACCELERATION_X <dbl>,
## #   RIGHT_ACCELERATION_Y <dbl>, RIGHT_GAZE_X <dbl>, RIGHT_GAZE_Y <dbl>,
## #   RIGHT_INTEREST_AREA_ID <chr>, RIGHT_IN_BLINK <dbl>, RIGHT_IN_SACCADE <dbl>,
## #   RIGHT_PUPIL_SIZE <dbl>, RIGHT_VELOCITY_X <dbl>, RIGHT_VELOCITY_Y <dbl>, ...

readRDS("FinalPolym007.rds")

## # A tibble: 103,382 x 78
##    Subject  TRIAL_INDEX AVERAGE_PUPIL_SI~ DATA_FILE EYE_TRACKED GROUPING_VARIAB~
##    <fct>          <dbl> <chr>             <chr>     <fct>       <chr>           
##  1 Polym007          10 .                 Polym007~ Right       RECORDING_SESSI~
##  2 Polym007          10 .                 Polym007~ Right       RECORDING_SESSI~
##  3 Polym007          10 .                 Polym007~ Right       RECORDING_SESSI~
##  4 Polym007          10 .                 Polym007~ Right       RECORDING_SESSI~
##  5 Polym007          10 .                 Polym007~ Right       RECORDING_SESSI~
##  6 Polym007          10 .                 Polym007~ Right       RECORDING_SESSI~
##  7 Polym007          10 .                 Polym007~ Right       RECORDING_SESSI~
##  8 Polym007          10 .                 Polym007~ Right       RECORDING_SESSI~
##  9 Polym007          10 .                 Polym007~ Right       RECORDING_SESSI~
## 10 Polym007          10 .                 Polym007~ Right       RECORDING_SESSI~
## # ... with 103,372 more rows, and 72 more variables: LEFT_ACCELERATION_X <dbl>,
## #   LEFT_ACCELERATION_Y <dbl>, LEFT_GAZE_X <dbl>, LEFT_GAZE_Y <dbl>,
## #   LEFT_IN_BLINK <dbl>, LEFT_IN_SACCADE <dbl>, LEFT_PUPIL_SIZE <dbl>,
## #   LEFT_VELOCITY_X <dbl>, LEFT_VELOCITY_Y <dbl>, RIGHT_ACCELERATION_X <dbl>,
## #   RIGHT_ACCELERATION_Y <dbl>, RIGHT_GAZE_X <dbl>, RIGHT_GAZE_Y <dbl>,
## #   RIGHT_INTEREST_AREA_ID <chr>, RIGHT_IN_BLINK <dbl>, RIGHT_IN_SACCADE <dbl>,
## #   RIGHT_PUPIL_SIZE <dbl>, RIGHT_VELOCITY_X <dbl>, RIGHT_VELOCITY_Y <dbl>, ...

readRDS("FinalPolym008.rds")

## # A tibble: 106,716 x 78
##    Subject  TRIAL_INDEX AVERAGE_PUPIL_SI~ DATA_FILE EYE_TRACKED GROUPING_VARIAB~
##    <fct>          <dbl> <chr>             <chr>     <fct>       <chr>           
##  1 Polym008          10 .                 Polym008~ Right       RECORDING_SESSI~
##  2 Polym008          10 .                 Polym008~ Right       RECORDING_SESSI~
##  3 Polym008          10 .                 Polym008~ Right       RECORDING_SESSI~
##  4 Polym008          10 .                 Polym008~ Right       RECORDING_SESSI~
##  5 Polym008          10 .                 Polym008~ Right       RECORDING_SESSI~
##  6 Polym008          10 .                 Polym008~ Right       RECORDING_SESSI~
##  7 Polym008          10 .                 Polym008~ Right       RECORDING_SESSI~
##  8 Polym008          10 .                 Polym008~ Right       RECORDING_SESSI~
##  9 Polym008          10 .                 Polym008~ Right       RECORDING_SESSI~
## 10 Polym008          10 .                 Polym008~ Right       RECORDING_SESSI~
## # ... with 106,706 more rows, and 72 more variables: LEFT_ACCELERATION_X <dbl>,
## #   LEFT_ACCELERATION_Y <dbl>, LEFT_GAZE_X <dbl>, LEFT_GAZE_Y <dbl>,
## #   LEFT_IN_BLINK <dbl>, LEFT_IN_SACCADE <dbl>, LEFT_PUPIL_SIZE <dbl>,
## #   LEFT_VELOCITY_X <dbl>, LEFT_VELOCITY_Y <dbl>, RIGHT_ACCELERATION_X <dbl>,
## #   RIGHT_ACCELERATION_Y <dbl>, RIGHT_GAZE_X <dbl>, RIGHT_GAZE_Y <dbl>,
## #   RIGHT_INTEREST_AREA_ID <chr>, RIGHT_IN_BLINK <dbl>, RIGHT_IN_SACCADE <dbl>,
## #   RIGHT_PUPIL_SIZE <dbl>, RIGHT_VELOCITY_X <dbl>, RIGHT_VELOCITY_Y <dbl>, ...

readRDS("FinalPolym009.rds")

## # A tibble: 107,656 x 78
##    Subject  TRIAL_INDEX AVERAGE_PUPIL_SI~ DATA_FILE EYE_TRACKED GROUPING_VARIAB~
##    <fct>          <dbl> <chr>             <chr>     <fct>       <chr>           
##  1 Polym009          10 .                 Polym009~ Right       RECORDING_SESSI~
##  2 Polym009          10 .                 Polym009~ Right       RECORDING_SESSI~
##  3 Polym009          10 .                 Polym009~ Right       RECORDING_SESSI~
##  4 Polym009          10 .                 Polym009~ Right       RECORDING_SESSI~
##  5 Polym009          10 .                 Polym009~ Right       RECORDING_SESSI~
##  6 Polym009          10 .                 Polym009~ Right       RECORDING_SESSI~
##  7 Polym009          10 .                 Polym009~ Right       RECORDING_SESSI~
##  8 Polym009          10 .                 Polym009~ Right       RECORDING_SESSI~
##  9 Polym009          10 .                 Polym009~ Right       RECORDING_SESSI~
## 10 Polym009          10 .                 Polym009~ Right       RECORDING_SESSI~
## # ... with 107,646 more rows, and 72 more variables: LEFT_ACCELERATION_X <dbl>,
## #   LEFT_ACCELERATION_Y <dbl>, LEFT_GAZE_X <dbl>, LEFT_GAZE_Y <dbl>,
## #   LEFT_IN_BLINK <dbl>, LEFT_IN_SACCADE <dbl>, LEFT_PUPIL_SIZE <dbl>,
## #   LEFT_VELOCITY_X <dbl>, LEFT_VELOCITY_Y <dbl>, RIGHT_ACCELERATION_X <dbl>,
## #   RIGHT_ACCELERATION_Y <dbl>, RIGHT_GAZE_X <dbl>, RIGHT_GAZE_Y <dbl>,
## #   RIGHT_INTEREST_AREA_ID <chr>, RIGHT_IN_BLINK <dbl>, RIGHT_IN_SACCADE <dbl>,
## #   RIGHT_PUPIL_SIZE <dbl>, RIGHT_VELOCITY_X <dbl>, RIGHT_VELOCITY_Y <dbl>, ...

readRDS("FinalPolym010.rds")

## # A tibble: 105,350 x 78
##    Subject  TRIAL_INDEX AVERAGE_PUPIL_SI~ DATA_FILE EYE_TRACKED GROUPING_VARIAB~
##    <fct>          <dbl> <chr>             <chr>     <fct>       <chr>           
##  1 Polym010          10 .                 Polym010~ Right       RECORDING_SESSI~
##  2 Polym010          10 .                 Polym010~ Right       RECORDING_SESSI~
##  3 Polym010          10 .                 Polym010~ Right       RECORDING_SESSI~
##  4 Polym010          10 .                 Polym010~ Right       RECORDING_SESSI~
##  5 Polym010          10 .                 Polym010~ Right       RECORDING_SESSI~
##  6 Polym010          10 .                 Polym010~ Right       RECORDING_SESSI~
##  7 Polym010          10 .                 Polym010~ Right       RECORDING_SESSI~
##  8 Polym010          10 .                 Polym010~ Right       RECORDING_SESSI~
##  9 Polym010          10 .                 Polym010~ Right       RECORDING_SESSI~
## 10 Polym010          10 .                 Polym010~ Right       RECORDING_SESSI~
## # ... with 105,340 more rows, and 72 more variables: LEFT_ACCELERATION_X <dbl>,
## #   LEFT_ACCELERATION_Y <dbl>, LEFT_GAZE_X <dbl>, LEFT_GAZE_Y <dbl>,
## #   LEFT_IN_BLINK <dbl>, LEFT_IN_SACCADE <dbl>, LEFT_PUPIL_SIZE <dbl>,
## #   LEFT_VELOCITY_X <dbl>, LEFT_VELOCITY_Y <dbl>, RIGHT_ACCELERATION_X <dbl>,
## #   RIGHT_ACCELERATION_Y <dbl>, RIGHT_GAZE_X <dbl>, RIGHT_GAZE_Y <dbl>,
## #   RIGHT_INTEREST_AREA_ID <chr>, RIGHT_IN_BLINK <dbl>, RIGHT_IN_SACCADE <dbl>,
## #   RIGHT_PUPIL_SIZE <dbl>, RIGHT_VELOCITY_X <dbl>, RIGHT_VELOCITY_Y <dbl>, ...

readRDS("FinalPolym011.rds")

## # A tibble: 108,022 x 78
##    Subject  TRIAL_INDEX AVERAGE_PUPIL_SI~ DATA_FILE EYE_TRACKED GROUPING_VARIAB~
##    <fct>          <dbl> <chr>             <chr>     <fct>       <chr>           
##  1 Polym011          10 .                 Polym011~ Right       RECORDING_SESSI~
##  2 Polym011          10 .                 Polym011~ Right       RECORDING_SESSI~
##  3 Polym011          10 .                 Polym011~ Right       RECORDING_SESSI~
##  4 Polym011          10 .                 Polym011~ Right       RECORDING_SESSI~
##  5 Polym011          10 .                 Polym011~ Right       RECORDING_SESSI~
##  6 Polym011          10 .                 Polym011~ Right       RECORDING_SESSI~
##  7 Polym011          10 .                 Polym011~ Right       RECORDING_SESSI~
##  8 Polym011          10 .                 Polym011~ Right       RECORDING_SESSI~
##  9 Polym011          10 .                 Polym011~ Right       RECORDING_SESSI~
## 10 Polym011          10 .                 Polym011~ Right       RECORDING_SESSI~
## # ... with 108,012 more rows, and 72 more variables: LEFT_ACCELERATION_X <dbl>,
## #   LEFT_ACCELERATION_Y <dbl>, LEFT_GAZE_X <dbl>, LEFT_GAZE_Y <dbl>,
## #   LEFT_IN_BLINK <dbl>, LEFT_IN_SACCADE <dbl>, LEFT_PUPIL_SIZE <dbl>,
## #   LEFT_VELOCITY_X <dbl>, LEFT_VELOCITY_Y <dbl>, RIGHT_ACCELERATION_X <dbl>,
## #   RIGHT_ACCELERATION_Y <dbl>, RIGHT_GAZE_X <dbl>, RIGHT_GAZE_Y <dbl>,
## #   RIGHT_INTEREST_AREA_ID <chr>, RIGHT_IN_BLINK <dbl>, RIGHT_IN_SACCADE <dbl>,
## #   RIGHT_PUPIL_SIZE <dbl>, RIGHT_VELOCITY_X <dbl>, RIGHT_VELOCITY_Y <dbl>, ...

readRDS("FinalPolym012.rds")

## # A tibble: 108,688 x 78
##    Subject  TRIAL_INDEX AVERAGE_PUPIL_SI~ DATA_FILE EYE_TRACKED GROUPING_VARIAB~
##    <fct>          <dbl> <chr>             <chr>     <fct>       <chr>           
##  1 Polym012          10 .                 Polym012~ Right       RECORDING_SESSI~
##  2 Polym012          10 .                 Polym012~ Right       RECORDING_SESSI~
##  3 Polym012          10 .                 Polym012~ Right       RECORDING_SESSI~
##  4 Polym012          10 .                 Polym012~ Right       RECORDING_SESSI~
##  5 Polym012          10 .                 Polym012~ Right       RECORDING_SESSI~
##  6 Polym012          10 .                 Polym012~ Right       RECORDING_SESSI~
##  7 Polym012          10 .                 Polym012~ Right       RECORDING_SESSI~
##  8 Polym012          10 .                 Polym012~ Right       RECORDING_SESSI~
##  9 Polym012          10 .                 Polym012~ Right       RECORDING_SESSI~
## 10 Polym012          10 .                 Polym012~ Right       RECORDING_SESSI~
## # ... with 108,678 more rows, and 72 more variables: LEFT_ACCELERATION_X <dbl>,
## #   LEFT_ACCELERATION_Y <dbl>, LEFT_GAZE_X <dbl>, LEFT_GAZE_Y <dbl>,
## #   LEFT_IN_BLINK <dbl>, LEFT_IN_SACCADE <dbl>, LEFT_PUPIL_SIZE <dbl>,
## #   LEFT_VELOCITY_X <dbl>, LEFT_VELOCITY_Y <dbl>, RIGHT_ACCELERATION_X <dbl>,
## #   RIGHT_ACCELERATION_Y <dbl>, RIGHT_GAZE_X <dbl>, RIGHT_GAZE_Y <dbl>,
## #   RIGHT_INTEREST_AREA_ID <chr>, RIGHT_IN_BLINK <dbl>, RIGHT_IN_SACCADE <dbl>,
## #   RIGHT_PUPIL_SIZE <dbl>, RIGHT_VELOCITY_X <dbl>, RIGHT_VELOCITY_Y <dbl>, ...
…
